<?xml version="1.0" encoding="UTF-8"?>
<testsuite xmlns:xsi="http://www.w3.org/2001/XMLSchema-instance" xsi:noNamespaceSchemaLocation="https://maven.apache.org/surefire/maven-surefire-plugin/xsd/surefire-test-report-3.0.xsd" version="3.0" name="com.dtupay.CucumberTest" time="1.033" tests="5" errors="0" skipped="0" failures="0">
  <properties>
    <property name="java.specification.version" value="21"/>
    <property name="sun.jnu.encoding" value="UTF-8"/>
    <property name="java.class.path" value="/Users/khaledzamzam/IdeaProjects/dtupay/account-service/target/test-classes:/Users/khaledzamzam/IdeaProjects/dtupay/account-service/target/classes:/Users/khaledzamzam/.m2/repository/org/projectlombok/lombok/1.18.30/lombok-1.18.30.jar:/Users/khaledzamzam/.m2/repository/dk/dtu/hubert/messaging-utilities/3.4/messaging-utilities-3.4.jar:/Users/khaledzamzam/.m2/repository/com/rabbitmq/amqp-client/5.10.0/amqp-client-5.10.0.jar:/Users/khaledzamzam/.m2/repository/org/slf4j/slf4j-api/1.7.30/slf4j-api-1.7.30.jar:/Users/khaledzamzam/.m2/repository/com/google/code/gson/gson/2.8.6/gson-2.8.6.jar:/Users/khaledzamzam/.m2/repository/io/cucumber/cucumber-java/7.10.1/cucumber-java-7.10.1.jar:/Users/khaledzamzam/.m2/repository/io/cucumber/cucumber-core/7.10.1/cucumber-core-7.10.1.jar:/Users/khaledzamzam/.m2/repository/io/cucumber/cucumber-gherkin/7.10.1/cucumber-gherkin-7.10.1.jar:/Users/khaledzamzam/.m2/repository/io/cucumber/cucumber-gherkin-messages/7.10.1/cucumber-gherkin-messages-7.10.1.jar:/Users/khaledzamzam/.m2/repository/io/cucumber/gherkin/25.0.2/gherkin-25.0.2.jar:/Users/khaledzamzam/.m2/repository/io/cucumber/messages/19.1.4/messages-19.1.4.jar:/Users/khaledzamzam/.m2/repository/io/cucumber/tag-expressions/4.1.0/tag-expressions-4.1.0.jar:/Users/khaledzamzam/.m2/repository/io/cucumber/cucumber-expressions/16.1.1/cucumber-expressions-16.1.1.jar:/Users/khaledzamzam/.m2/repository/io/cucumber/datatable/7.10.1/datatable-7.10.1.jar:/Users/khaledzamzam/.m2/repository/io/cucumber/cucumber-plugin/7.10.1/cucumber-plugin-7.10.1.jar:/Users/khaledzamzam/.m2/repository/io/cucumber/docstring/7.10.1/docstring-7.10.1.jar:/Users/khaledzamzam/.m2/repository/io/cucumber/html-formatter/20.2.0/html-formatter-20.2.0.jar:/Users/khaledzamzam/.m2/repository/io/cucumber/ci-environment/9.1.0/ci-environment-9.1.0.jar:/Users/khaledzamzam/.m2/repository/org/apiguardian/apiguardian-api/1.1.2/apiguardian-api-1.1.2.jar:/Users/khaledzamzam/.m2/repository/io/cucumber/cucumber-junit/7.10.1/cucumber-junit-7.10.1.jar:/Users/khaledzamzam/.m2/repository/junit/junit/4.13.2/junit-4.13.2.jar:/Users/khaledzamzam/.m2/repository/org/hamcrest/hamcrest-core/1.3/hamcrest-core-1.3.jar:/Users/khaledzamzam/.m2/repository/io/cucumber/cucumber-picocontainer/7.10.1/cucumber-picocontainer-7.10.1.jar:/Users/khaledzamzam/.m2/repository/org/picocontainer/picocontainer/2.15/picocontainer-2.15.jar:/Users/khaledzamzam/.m2/repository/org/junit/jupiter/junit-jupiter-engine/5.9.1/junit-jupiter-engine-5.9.1.jar:/Users/khaledzamzam/.m2/repository/org/junit/platform/junit-platform-engine/1.9.1/junit-platform-engine-1.9.1.jar:/Users/khaledzamzam/.m2/repository/org/opentest4j/opentest4j/1.2.0/opentest4j-1.2.0.jar:/Users/khaledzamzam/.m2/repository/org/junit/platform/junit-platform-commons/1.9.1/junit-platform-commons-1.9.1.jar:/Users/khaledzamzam/.m2/repository/org/junit/jupiter/junit-jupiter-api/5.9.1/junit-jupiter-api-5.9.1.jar:/Users/khaledzamzam/.m2/repository/org/junit/vintage/junit-vintage-engine/5.9.1/junit-vintage-engine-5.9.1.jar:/Users/khaledzamzam/.m2/repository/org/junit/platform/junit-platform-runner/1.9.1/junit-platform-runner-1.9.1.jar:/Users/khaledzamzam/.m2/repository/org/junit/platform/junit-platform-launcher/1.9.1/junit-platform-launcher-1.9.1.jar:/Users/khaledzamzam/.m2/repository/org/junit/platform/junit-platform-suite-api/1.9.1/junit-platform-suite-api-1.9.1.jar:/Users/khaledzamzam/.m2/repository/org/junit/platform/junit-platform-suite-commons/1.9.1/junit-platform-suite-commons-1.9.1.jar:/Users/khaledzamzam/.m2/repository/org/mockito/mockito-core/3.7.0/mockito-core-3.7.0.jar:/Users/khaledzamzam/.m2/repository/net/bytebuddy/byte-buddy/1.10.19/byte-buddy-1.10.19.jar:/Users/khaledzamzam/.m2/repository/net/bytebuddy/byte-buddy-agent/1.10.19/byte-buddy-agent-1.10.19.jar:/Users/khaledzamzam/.m2/repository/org/objenesis/objenesis/3.1/objenesis-3.1.jar:"/>
    <property name="java.vm.vendor" value="Homebrew"/>
    <property name="sun.arch.data.model" value="64"/>
    <property name="java.vendor.url" value="https://github.com/Homebrew/homebrew-core/issues"/>
    <property name="os.name" value="Mac OS X"/>
    <property name="java.vm.specification.version" value="21"/>
    <property name="sun.java.launcher" value="SUN_STANDARD"/>
    <property name="user.country" value="GB"/>
    <property name="sun.boot.library.path" value="/usr/local/Cellar/openjdk/21.0.1/libexec/openjdk.jdk/Contents/Home/lib"/>
    <property name="sun.java.command" value="/Users/khaledzamzam/IdeaProjects/dtupay/account-service/target/surefire/surefirebooter-20240119142027986_3.jar /Users/khaledzamzam/IdeaProjects/dtupay/account-service/target/surefire 2024-01-19T14-20-27_874-jvmRun1 surefire-20240119142027986_1tmp surefire_0-20240119142027986_2tmp"/>
    <property name="http.nonProxyHosts" value="local|*.local|169.254/16|*.169.254/16"/>
    <property name="jdk.debug" value="release"/>
    <property name="surefire.test.class.path" value="/Users/khaledzamzam/IdeaProjects/dtupay/account-service/target/test-classes:/Users/khaledzamzam/IdeaProjects/dtupay/account-service/target/classes:/Users/khaledzamzam/.m2/repository/org/projectlombok/lombok/1.18.30/lombok-1.18.30.jar:/Users/khaledzamzam/.m2/repository/dk/dtu/hubert/messaging-utilities/3.4/messaging-utilities-3.4.jar:/Users/khaledzamzam/.m2/repository/com/rabbitmq/amqp-client/5.10.0/amqp-client-5.10.0.jar:/Users/khaledzamzam/.m2/repository/org/slf4j/slf4j-api/1.7.30/slf4j-api-1.7.30.jar:/Users/khaledzamzam/.m2/repository/com/google/code/gson/gson/2.8.6/gson-2.8.6.jar:/Users/khaledzamzam/.m2/repository/io/cucumber/cucumber-java/7.10.1/cucumber-java-7.10.1.jar:/Users/khaledzamzam/.m2/repository/io/cucumber/cucumber-core/7.10.1/cucumber-core-7.10.1.jar:/Users/khaledzamzam/.m2/repository/io/cucumber/cucumber-gherkin/7.10.1/cucumber-gherkin-7.10.1.jar:/Users/khaledzamzam/.m2/repository/io/cucumber/cucumber-gherkin-messages/7.10.1/cucumber-gherkin-messages-7.10.1.jar:/Users/khaledzamzam/.m2/repository/io/cucumber/gherkin/25.0.2/gherkin-25.0.2.jar:/Users/khaledzamzam/.m2/repository/io/cucumber/messages/19.1.4/messages-19.1.4.jar:/Users/khaledzamzam/.m2/repository/io/cucumber/tag-expressions/4.1.0/tag-expressions-4.1.0.jar:/Users/khaledzamzam/.m2/repository/io/cucumber/cucumber-expressions/16.1.1/cucumber-expressions-16.1.1.jar:/Users/khaledzamzam/.m2/repository/io/cucumber/datatable/7.10.1/datatable-7.10.1.jar:/Users/khaledzamzam/.m2/repository/io/cucumber/cucumber-plugin/7.10.1/cucumber-plugin-7.10.1.jar:/Users/khaledzamzam/.m2/repository/io/cucumber/docstring/7.10.1/docstring-7.10.1.jar:/Users/khaledzamzam/.m2/repository/io/cucumber/html-formatter/20.2.0/html-formatter-20.2.0.jar:/Users/khaledzamzam/.m2/repository/io/cucumber/ci-environment/9.1.0/ci-environment-9.1.0.jar:/Users/khaledzamzam/.m2/repository/org/apiguardian/apiguardian-api/1.1.2/apiguardian-api-1.1.2.jar:/Users/khaledzamzam/.m2/repository/io/cucumber/cucumber-junit/7.10.1/cucumber-junit-7.10.1.jar:/Users/khaledzamzam/.m2/repository/junit/junit/4.13.2/junit-4.13.2.jar:/Users/khaledzamzam/.m2/repository/org/hamcrest/hamcrest-core/1.3/hamcrest-core-1.3.jar:/Users/khaledzamzam/.m2/repository/io/cucumber/cucumber-picocontainer/7.10.1/cucumber-picocontainer-7.10.1.jar:/Users/khaledzamzam/.m2/repository/org/picocontainer/picocontainer/2.15/picocontainer-2.15.jar:/Users/khaledzamzam/.m2/repository/org/junit/jupiter/junit-jupiter-engine/5.9.1/junit-jupiter-engine-5.9.1.jar:/Users/khaledzamzam/.m2/repository/org/junit/platform/junit-platform-engine/1.9.1/junit-platform-engine-1.9.1.jar:/Users/khaledzamzam/.m2/repository/org/opentest4j/opentest4j/1.2.0/opentest4j-1.2.0.jar:/Users/khaledzamzam/.m2/repository/org/junit/platform/junit-platform-commons/1.9.1/junit-platform-commons-1.9.1.jar:/Users/khaledzamzam/.m2/repository/org/junit/jupiter/junit-jupiter-api/5.9.1/junit-jupiter-api-5.9.1.jar:/Users/khaledzamzam/.m2/repository/org/junit/vintage/junit-vintage-engine/5.9.1/junit-vintage-engine-5.9.1.jar:/Users/khaledzamzam/.m2/repository/org/junit/platform/junit-platform-runner/1.9.1/junit-platform-runner-1.9.1.jar:/Users/khaledzamzam/.m2/repository/org/junit/platform/junit-platform-launcher/1.9.1/junit-platform-launcher-1.9.1.jar:/Users/khaledzamzam/.m2/repository/org/junit/platform/junit-platform-suite-api/1.9.1/junit-platform-suite-api-1.9.1.jar:/Users/khaledzamzam/.m2/repository/org/junit/platform/junit-platform-suite-commons/1.9.1/junit-platform-suite-commons-1.9.1.jar:/Users/khaledzamzam/.m2/repository/org/mockito/mockito-core/3.7.0/mockito-core-3.7.0.jar:/Users/khaledzamzam/.m2/repository/net/bytebuddy/byte-buddy/1.10.19/byte-buddy-1.10.19.jar:/Users/khaledzamzam/.m2/repository/net/bytebuddy/byte-buddy-agent/1.10.19/byte-buddy-agent-1.10.19.jar:/Users/khaledzamzam/.m2/repository/org/objenesis/objenesis/3.1/objenesis-3.1.jar:"/>
    <property name="sun.cpu.endian" value="little"/>
    <property name="user.home" value="/Users/khaledzamzam"/>
    <property name="user.language" value="en"/>
    <property name="java.specification.vendor" value="Oracle Corporation"/>
    <property name="java.version.date" value="2023-10-17"/>
    <property name="java.home" value="/usr/local/Cellar/openjdk/21.0.1/libexec/openjdk.jdk/Contents/Home"/>
    <property name="file.separator" value="/"/>
    <property name="basedir" value="/Users/khaledzamzam/IdeaProjects/dtupay/account-service"/>
    <property name="java.vm.compressedOopsMode" value="Zero based"/>
    <property name="line.separator" value="&#10;"/>
    <property name="java.vm.specification.vendor" value="Oracle Corporation"/>
    <property name="java.specification.name" value="Java Platform API Specification"/>
    <property name="apple.awt.application.name" value="ForkedBooter"/>
    <property name="surefire.real.class.path" value="/Users/khaledzamzam/IdeaProjects/dtupay/account-service/target/surefire/surefirebooter-20240119142027986_3.jar"/>
    <property name="sun.management.compiler" value="HotSpot 64-Bit Tiered Compilers"/>
    <property name="ftp.nonProxyHosts" value="local|*.local|169.254/16|*.169.254/16"/>
    <property name="java.runtime.version" value="21.0.1"/>
    <property name="user.name" value="khaledzamzam"/>
    <property name="stdout.encoding" value="UTF-8"/>
    <property name="path.separator" value=":"/>
    <property name="os.version" value="14.2"/>
    <property name="java.runtime.name" value="OpenJDK Runtime Environment"/>
    <property name="file.encoding" value="UTF-8"/>
    <property name="java.vm.name" value="OpenJDK 64-Bit Server VM"/>
    <property name="java.vendor.version" value="Homebrew"/>
    <property name="localRepository" value="/Users/khaledzamzam/.m2/repository"/>
    <property name="java.vendor.url.bug" value="https://github.com/Homebrew/homebrew-core/issues"/>
    <property name="java.io.tmpdir" value="/var/folders/qv/234pdy413yb1849lr6fqstf00000gn/T/"/>
    <property name="java.version" value="21.0.1"/>
    <property name="user.dir" value="/Users/khaledzamzam/IdeaProjects/dtupay/account-service"/>
    <property name="os.arch" value="x86_64"/>
    <property name="java.vm.specification.name" value="Java Virtual Machine Specification"/>
    <property name="native.encoding" value="UTF-8"/>
    <property name="java.library.path" value="/Users/khaledzamzam/Library/Java/Extensions:/Library/Java/Extensions:/Network/Library/Java/Extensions:/System/Library/Java/Extensions:/usr/lib/java:."/>
    <property name="java.vm.info" value="mixed mode, sharing"/>
    <property name="stderr.encoding" value="UTF-8"/>
    <property name="java.vendor" value="Homebrew"/>
    <property name="java.vm.version" value="21.0.1"/>
    <property name="sun.io.unicode.encoding" value="UnicodeBig"/>
    <property name="socksNonProxyHosts" value="local|*.local|169.254/16|*.169.254/16"/>
    <property name="java.class.version" value="65.0"/>
  </properties>
  <testcase name="Customer is successfully registered" classname="Account Creation" time="0.629"/>
  <testcase name="Customer with the given bank number already exists" classname="Account Creation" time="0.006"/>
  <testcase name="Merchant is successfully registered" classname="Account Creation" time="0.006"/>
  <testcase name="Merchant with the given bank number already exists" classname="Account Creation" time="0.007"/>
  <testcase name="Bank Account Numbers retrieved successfully" classname="Bank Account Number Request" time="0.009"/>
</testsuite>