-------------------------------------------------------------------------------
Test set: com.dtupay.CucumberTest
-------------------------------------------------------------------------------
Tests run: 2, Failures: 0, Errors: 0, Skipped: 0, Time elapsed: 1.079 s -- in com.dtupay.CucumberTest
