-------------------------------------------------------------------------------
Test set: com.dtupay.CucumberTest
-------------------------------------------------------------------------------
Tests run: 3, Failures: 0, Errors: 0, Skipped: 0, Time elapsed: 0.683 s - in com.dtupay.CucumberTest
